<?xml version='1.0'?>
<ns2:test-suite xmlns:ns2='urn:model.allure.qatools.yandex.ru' start='1552021567287' stop='1552021580562'>
    <name>@RandomTesting: Random Testing @RandomTesting: Eventos aleatorios</name>
    <title>@RandomTesting: Random Testing @RandomTesting: Eventos aleatorios</title>
    <test-cases>
        <test-case start='1552021567299' status='passed' stop='1552021577644'>
            <name>El usuario navega en la página "paginaMantisBT"</name>
            <title>El usuario navega en la página "paginaMantisBT"</title>
            <labels>
                <label name='feature' value='Random Testing'/>
                <label name='story' value='Eventos aleatorios'/>
                <label name='language' value='javascript'/>
                <label name='framework' value='wdio'/>
            </labels>
            <parameters>
                <parameter kind='argument' name='browser' value='chrome'/>
                <parameter kind='environment-variable' name='capabilities' value='{"browserName":"chrome","chromeOptions":{"args":["incognito","disable-extensions","start-maximized","--lang=es"]},"maxInstances":"5"}'/>
                <parameter kind='environment-variable' name='spec files' value='["C:\\Users\\William\\Documents\\Proyectos\\q-art\\test\\features\\mantisBT\\RandomTesting.feature"]'/>
            </parameters>
            <steps>
                <step start='1552021567308' status='passed' stop='1552021576638'>
                    <name>POST /wd/hub/session/d4963e9b7eaab0b010049a9a53c66973/url</name>
                    <title>POST /wd/hub/session/d4963e9b7eaab0b010049a9a53c66973/url</title>
                    <attachments>
                        <attachment title='Request' source='017f38ff-c866-4941-9b67-838ad08d5f97-attachment.json' type='application/json' size='41'/>
                        <attachment title='Response' source='1b2efa07-c2bf-420c-8851-067f961f4473-attachment.json' type='application/json' size='91'/>
                    </attachments>
                    <steps/>
                </step>
            </steps>
            <attachments/>
        </test-case>
        <test-case start='1552021577645' status='broken' stop='1552021580553'>
            <name>El usuario escribe "admin" en el campo de texto "campoUsuario"</name>
            <title>El usuario escribe "admin" en el campo de texto "campoUsuario"</title>
            <labels>
                <label name='feature' value='Random Testing'/>
                <label name='story' value='Eventos aleatorios'/>
                <label name='language' value='javascript'/>
                <label name='framework' value='wdio'/>
            </labels>
            <parameters>
                <parameter kind='argument' name='browser' value='chrome'/>
                <parameter kind='environment-variable' name='capabilities' value='{"browserName":"chrome","chromeOptions":{"args":["incognito","disable-extensions","start-maximized","--lang=es"]},"maxInstances":"5"}'/>
                <parameter kind='environment-variable' name='spec files' value='["C:\\Users\\William\\Documents\\Proyectos\\q-art\\test\\features\\mantisBT\\RandomTesting.feature"]'/>
            </parameters>
            <steps>
                <step start='1552021577647' status='passed' stop='1552021577668'>
                    <name>POST /wd/hub/session/d4963e9b7eaab0b010049a9a53c66973/element</name>
                    <title>POST /wd/hub/session/d4963e9b7eaab0b010049a9a53c66973/element</title>
                    <attachments>
                        <attachment title='Request' source='d51189e2-3ec4-4636-bed5-caac08f0bffc-attachment.json' type='application/json' size='64'/>
                        <attachment title='Response' source='6d6b8cc7-0135-4682-b2f6-36e0713b55d6-attachment.json' type='application/json' size='620'/>
                    </attachments>
                    <steps/>
                </step>
                <step start='1552021577673' status='passed' stop='1552021577690'>
                    <name>POST /wd/hub/session/d4963e9b7eaab0b010049a9a53c66973/elements</name>
                    <title>POST /wd/hub/session/d4963e9b7eaab0b010049a9a53c66973/elements</title>
                    <attachments>
                        <attachment title='Request' source='b0ce2ccb-17fe-4545-9812-8bb52aa0440a-attachment.json' type='application/json' size='64'/>
                        <attachment title='Response' source='b16ffa35-1068-4cf7-982b-89fdcd8f3e5c-attachment.json' type='application/json' size='89'/>
                    </attachments>
                    <steps/>
                </step>
                <step start='1552021578173' status='passed' stop='1552021578186'>
                    <name>POST /wd/hub/session/d4963e9b7eaab0b010049a9a53c66973/elements</name>
                    <title>POST /wd/hub/session/d4963e9b7eaab0b010049a9a53c66973/elements</title>
                    <attachments>
                        <attachment title='Request' source='ba8e631e-0b7c-4a4b-8a4f-028e9e8f9dc8-attachment.json' type='application/json' size='64'/>
                        <attachment title='Response' source='f912606b-112b-4e65-a9f9-dbe079dbcf71-attachment.json' type='application/json' size='89'/>
                    </attachments>
                    <steps/>
                </step>
                <step start='1552021578674' status='passed' stop='1552021578687'>
                    <name>POST /wd/hub/session/d4963e9b7eaab0b010049a9a53c66973/elements</name>
                    <title>POST /wd/hub/session/d4963e9b7eaab0b010049a9a53c66973/elements</title>
                    <attachments>
                        <attachment title='Request' source='21a0c25d-4aa3-4f34-8766-41fcd849481a-attachment.json' type='application/json' size='64'/>
                        <attachment title='Response' source='12c89feb-6059-4f2e-906b-9cd3c1edaad6-attachment.json' type='application/json' size='89'/>
                    </attachments>
                    <steps/>
                </step>
                <step start='1552021579173' status='passed' stop='1552021579191'>
                    <name>POST /wd/hub/session/d4963e9b7eaab0b010049a9a53c66973/elements</name>
                    <title>POST /wd/hub/session/d4963e9b7eaab0b010049a9a53c66973/elements</title>
                    <attachments>
                        <attachment title='Request' source='7c75a069-24de-4635-8ab0-8858f57afe43-attachment.json' type='application/json' size='64'/>
                        <attachment title='Response' source='d168baf5-5e6d-4a78-a78a-1b73890d6ab9-attachment.json' type='application/json' size='89'/>
                    </attachments>
                    <steps/>
                </step>
                <step start='1552021579675' status='broken' stop='1552021580553'>
                    <name>GET /wd/hub/session/d4963e9b7eaab0b010049a9a53c66973/screenshot</name>
                    <title>GET /wd/hub/session/d4963e9b7eaab0b010049a9a53c66973/screenshot</title>
                    <attachments>
                        <attachment title='Screenshot' source='a2887ede-2a82-43be-9877-b5acbbd76a16-attachment.png' type='image/png' size='22767'/>
                    </attachments>
                    <steps/>
                </step>
            </steps>
            <attachments/>
            <failure>
                <message>element ("//input[@id='username']") still not visible after 2000ms</message>
                <stack-trace>Error: element ("//input[@id='username']") still not visible after 2000ms
                    at elements("//input[@id='username']") - C:\Users\William\Documents\Proyectos\q-art\node_modules\webdriverio\build\lib\commands\isVisible.js:54:17
                    at isVisible("//input[@id='username']") - C:\Users\William\Documents\Proyectos\q-art\node_modules\webdriverio\build\lib\commands\waitForVisible.js:73:22</stack-trace>
            </failure>
        </test-case>
        <test-case start='1552021580553' status='pending' stop='1552021580553'>
            <name>El usuario hace clic en el botón "botonInicarSesion"</name>
            <title>El usuario hace clic en el botón "botonInicarSesion"</title>
            <labels>
                <label name='feature' value='Random Testing'/>
                <label name='story' value='Eventos aleatorios'/>
                <label name='language' value='javascript'/>
                <label name='framework' value='wdio'/>
            </labels>
            <parameters>
                <parameter kind='argument' name='browser' value='chrome'/>
                <parameter kind='environment-variable' name='capabilities' value='{"browserName":"chrome","chromeOptions":{"args":["incognito","disable-extensions","start-maximized","--lang=es"]},"maxInstances":"5"}'/>
                <parameter kind='environment-variable' name='spec files' value='["C:\\Users\\William\\Documents\\Proyectos\\q-art\\test\\features\\mantisBT\\RandomTesting.feature"]'/>
            </parameters>
            <steps/>
            <attachments/>
        </test-case>
        <test-case start='1552021580554' status='pending' stop='1552021580558'>
            <name>El usuario escribe "admin" en el campo de texto "campoContrasenia"</name>
            <title>El usuario escribe "admin" en el campo de texto "campoContrasenia"</title>
            <labels>
                <label name='feature' value='Random Testing'/>
                <label name='story' value='Eventos aleatorios'/>
                <label name='language' value='javascript'/>
                <label name='framework' value='wdio'/>
            </labels>
            <parameters>
                <parameter kind='argument' name='browser' value='chrome'/>
                <parameter kind='environment-variable' name='capabilities' value='{"browserName":"chrome","chromeOptions":{"args":["incognito","disable-extensions","start-maximized","--lang=es"]},"maxInstances":"5"}'/>
                <parameter kind='environment-variable' name='spec files' value='["C:\\Users\\William\\Documents\\Proyectos\\q-art\\test\\features\\mantisBT\\RandomTesting.feature"]'/>
            </parameters>
            <steps/>
            <attachments/>
        </test-case>
        <test-case start='1552021580558' status='pending' stop='1552021580559'>
            <name>El usuario hace clic en el botón "botonInicarSesion"</name>
            <title>El usuario hace clic en el botón "botonInicarSesion"</title>
            <labels>
                <label name='feature' value='Random Testing'/>
                <label name='story' value='Eventos aleatorios'/>
                <label name='language' value='javascript'/>
                <label name='framework' value='wdio'/>
            </labels>
            <parameters>
                <parameter kind='argument' name='browser' value='chrome'/>
                <parameter kind='environment-variable' name='capabilities' value='{"browserName":"chrome","chromeOptions":{"args":["incognito","disable-extensions","start-maximized","--lang=es"]},"maxInstances":"5"}'/>
                <parameter kind='environment-variable' name='spec files' value='["C:\\Users\\William\\Documents\\Proyectos\\q-art\\test\\features\\mantisBT\\RandomTesting.feature"]'/>
            </parameters>
            <steps/>
            <attachments/>
        </test-case>
        <test-case start='1552021580559' status='pending' stop='1552021580560'>
            <name>El usuario debe ver la ventana con título "Mi Vista - MantisBT"</name>
            <title>El usuario debe ver la ventana con título "Mi Vista - MantisBT"</title>
            <labels>
                <label name='feature' value='Random Testing'/>
                <label name='story' value='Eventos aleatorios'/>
                <label name='language' value='javascript'/>
                <label name='framework' value='wdio'/>
            </labels>
            <parameters>
                <parameter kind='argument' name='browser' value='chrome'/>
                <parameter kind='environment-variable' name='capabilities' value='{"browserName":"chrome","chromeOptions":{"args":["incognito","disable-extensions","start-maximized","--lang=es"]},"maxInstances":"5"}'/>
                <parameter kind='environment-variable' name='spec files' value='["C:\\Users\\William\\Documents\\Proyectos\\q-art\\test\\features\\mantisBT\\RandomTesting.feature"]'/>
            </parameters>
            <steps/>
            <attachments/>
        </test-case>
        <test-case start='1552021580560' status='pending' stop='1552021580560'>
            <name>El usuario ejecuta "10" eventos de forma aleatoria</name>
            <title>El usuario ejecuta "10" eventos de forma aleatoria</title>
            <labels>
                <label name='feature' value='Random Testing'/>
                <label name='story' value='Eventos aleatorios'/>
                <label name='language' value='javascript'/>
                <label name='framework' value='wdio'/>
            </labels>
            <parameters>
                <parameter kind='argument' name='browser' value='chrome'/>
                <parameter kind='environment-variable' name='capabilities' value='{"browserName":"chrome","chromeOptions":{"args":["incognito","disable-extensions","start-maximized","--lang=es"]},"maxInstances":"5"}'/>
                <parameter kind='environment-variable' name='spec files' value='["C:\\Users\\William\\Documents\\Proyectos\\q-art\\test\\features\\mantisBT\\RandomTesting.feature"]'/>
            </parameters>
            <steps/>
            <attachments/>
        </test-case>
    </test-cases>
</ns2:test-suite>