{
    "message": "no such element: Unable to locate element: {\"method\":\"xpath\",\"selector\":\"//input[@id='username']\"}",
    "type": "RuntimeError",
    "seleniumStack": {
        "type": "NoSuchElement",
        "message": "An element could not be located on the page using the given search parameters.",
        "orgStatusMessage": "no such element: Unable to locate element: {\"method\":\"xpath\",\"selector\":\"//input[@id='username']\"}\n  (Session info: chrome=72.0.3626.121)\n  (Driver info: chromedriver=2.43.600210 (68dcf5eebde37173d4027fa8635e332711d2874a),platform=Windows NT 10.0.17134 x86_64)"
    }
}