<?xml version='1.0'?>
<ns2:test-suite xmlns:ns2='urn:model.allure.qatools.yandex.ru' start='1552108630923' stop='1552108657454'>
    <name>@RandomTesting: Random Testing @RandomTesting: Eventos aleatorios</name>
    <title>@RandomTesting: Random Testing @RandomTesting: Eventos aleatorios</title>
    <test-cases>
        <test-case start='1552108630950' status='passed' stop='1552108654656'>
            <name>El usuario navega en la página "paginaMantisBT"</name>
            <title>El usuario navega en la página "paginaMantisBT"</title>
            <labels>
                <label name='feature' value='Random Testing'/>
                <label name='story' value='Eventos aleatorios'/>
                <label name='language' value='javascript'/>
                <label name='framework' value='wdio'/>
            </labels>
            <parameters>
                <parameter kind='argument' name='browser' value='chrome'/>
                <parameter kind='environment-variable' name='capabilities' value='{"browserName":"chrome","chromeOptions":{"args":["incognito","disable-extensions","start-maximized","--lang=es"]},"maxInstances":"5"}'/>
                <parameter kind='environment-variable' name='spec files' value='["C:\\Users\\William\\Documents\\Proyectos\\q-art\\test\\features\\mantisBT\\RandomTesting.feature"]'/>
            </parameters>
            <steps>
                <step start='1552108631034' status='passed' stop='1552108653711'>
                    <name>POST /wd/hub/session/4bd4ae9fc1de027a4c73a879e1de0223/url</name>
                    <title>POST /wd/hub/session/4bd4ae9fc1de027a4c73a879e1de0223/url</title>
                    <attachments>
                        <attachment title='Request' source='fbeeb7a9-4673-4e08-8700-d003a82ad9f7-attachment.json' type='application/json' size='41'/>
                        <attachment title='Response' source='1f7bc76f-800e-43df-a26c-c5f6fbb7607b-attachment.json' type='application/json' size='91'/>
                    </attachments>
                    <steps/>
                </step>
            </steps>
            <attachments/>
        </test-case>
        <test-case start='1552108654656' status='broken' stop='1552108657446'>
            <name>El usuario escribe "admin" en el campo de texto "campoUsuario"</name>
            <title>El usuario escribe "admin" en el campo de texto "campoUsuario"</title>
            <labels>
                <label name='feature' value='Random Testing'/>
                <label name='story' value='Eventos aleatorios'/>
                <label name='language' value='javascript'/>
                <label name='framework' value='wdio'/>
            </labels>
            <parameters>
                <parameter kind='argument' name='browser' value='chrome'/>
                <parameter kind='environment-variable' name='capabilities' value='{"browserName":"chrome","chromeOptions":{"args":["incognito","disable-extensions","start-maximized","--lang=es"]},"maxInstances":"5"}'/>
                <parameter kind='environment-variable' name='spec files' value='["C:\\Users\\William\\Documents\\Proyectos\\q-art\\test\\features\\mantisBT\\RandomTesting.feature"]'/>
            </parameters>
            <steps>
                <step start='1552108654659' status='passed' stop='1552108654793'>
                    <name>POST /wd/hub/session/4bd4ae9fc1de027a4c73a879e1de0223/element</name>
                    <title>POST /wd/hub/session/4bd4ae9fc1de027a4c73a879e1de0223/element</title>
                    <attachments>
                        <attachment title='Request' source='c8ab6ebb-f3d7-485d-931f-cade7c77d965-attachment.json' type='application/json' size='64'/>
                        <attachment title='Response' source='1d6d2f7e-d458-4609-8cb0-391f4c4cdcaa-attachment.json' type='application/json' size='620'/>
                    </attachments>
                    <steps/>
                </step>
                <step start='1552108654799' status='passed' stop='1552108654911'>
                    <name>POST /wd/hub/session/4bd4ae9fc1de027a4c73a879e1de0223/elements</name>
                    <title>POST /wd/hub/session/4bd4ae9fc1de027a4c73a879e1de0223/elements</title>
                    <attachments>
                        <attachment title='Request' source='df63f37d-e110-4048-bf91-d448f98a75f4-attachment.json' type='application/json' size='64'/>
                        <attachment title='Response' source='8b0f9c35-9d53-40c7-a03a-39c6c0397473-attachment.json' type='application/json' size='89'/>
                    </attachments>
                    <steps/>
                </step>
                <step start='1552108655298' status='passed' stop='1552108655342'>
                    <name>POST /wd/hub/session/4bd4ae9fc1de027a4c73a879e1de0223/elements</name>
                    <title>POST /wd/hub/session/4bd4ae9fc1de027a4c73a879e1de0223/elements</title>
                    <attachments>
                        <attachment title='Request' source='2e4b5070-7bd2-497a-973d-5b047ebdbbf6-attachment.json' type='application/json' size='64'/>
                        <attachment title='Response' source='ea856e66-8e83-48ce-9a73-85130136b17a-attachment.json' type='application/json' size='89'/>
                    </attachments>
                    <steps/>
                </step>
                <step start='1552108655802' status='passed' stop='1552108655816'>
                    <name>POST /wd/hub/session/4bd4ae9fc1de027a4c73a879e1de0223/elements</name>
                    <title>POST /wd/hub/session/4bd4ae9fc1de027a4c73a879e1de0223/elements</title>
                    <attachments>
                        <attachment title='Request' source='cf06e99c-3875-4eda-90b5-4e231f941ff4-attachment.json' type='application/json' size='64'/>
                        <attachment title='Response' source='3d07fd37-090b-44e9-b5b7-1eefda988e46-attachment.json' type='application/json' size='89'/>
                    </attachments>
                    <steps/>
                </step>
                <step start='1552108656299' status='passed' stop='1552108656407'>
                    <name>POST /wd/hub/session/4bd4ae9fc1de027a4c73a879e1de0223/elements</name>
                    <title>POST /wd/hub/session/4bd4ae9fc1de027a4c73a879e1de0223/elements</title>
                    <attachments>
                        <attachment title='Request' source='4b18ef02-6c94-4f72-92d3-e895dd697784-attachment.json' type='application/json' size='64'/>
                        <attachment title='Response' source='8bc174f3-d076-4e7b-95e6-de7190c8a731-attachment.json' type='application/json' size='89'/>
                    </attachments>
                    <steps/>
                </step>
                <step start='1552108656874' status='broken' stop='1552108657446'>
                    <name>GET /wd/hub/session/4bd4ae9fc1de027a4c73a879e1de0223/screenshot</name>
                    <title>GET /wd/hub/session/4bd4ae9fc1de027a4c73a879e1de0223/screenshot</title>
                    <attachments>
                        <attachment title='Screenshot' source='57b50378-ad29-4ab5-aec8-f14c97df7dd1-attachment.png' type='image/png' size='22767'/>
                    </attachments>
                    <steps/>
                </step>
            </steps>
            <attachments/>
            <failure>
                <message>element ("//input[@id='username']") still not visible after 2000ms</message>
                <stack-trace>Error: element ("//input[@id='username']") still not visible after 2000ms
                    at elements("//input[@id='username']") - C:\Users\William\Documents\Proyectos\q-art\node_modules\webdriverio\build\lib\commands\isVisible.js:54:17
                    at isVisible("//input[@id='username']") - C:\Users\William\Documents\Proyectos\q-art\node_modules\webdriverio\build\lib\commands\waitForVisible.js:73:22</stack-trace>
            </failure>
        </test-case>
        <test-case start='1552108657446' status='pending' stop='1552108657449'>
            <name>El usuario hace clic en el botón "botonInicarSesion"</name>
            <title>El usuario hace clic en el botón "botonInicarSesion"</title>
            <labels>
                <label name='feature' value='Random Testing'/>
                <label name='story' value='Eventos aleatorios'/>
                <label name='language' value='javascript'/>
                <label name='framework' value='wdio'/>
            </labels>
            <parameters>
                <parameter kind='argument' name='browser' value='chrome'/>
                <parameter kind='environment-variable' name='capabilities' value='{"browserName":"chrome","chromeOptions":{"args":["incognito","disable-extensions","start-maximized","--lang=es"]},"maxInstances":"5"}'/>
                <parameter kind='environment-variable' name='spec files' value='["C:\\Users\\William\\Documents\\Proyectos\\q-art\\test\\features\\mantisBT\\RandomTesting.feature"]'/>
            </parameters>
            <steps/>
            <attachments/>
        </test-case>
        <test-case start='1552108657449' status='pending' stop='1552108657450'>
            <name>El usuario escribe "admin" en el campo de texto "campoContrasenia"</name>
            <title>El usuario escribe "admin" en el campo de texto "campoContrasenia"</title>
            <labels>
                <label name='feature' value='Random Testing'/>
                <label name='story' value='Eventos aleatorios'/>
                <label name='language' value='javascript'/>
                <label name='framework' value='wdio'/>
            </labels>
            <parameters>
                <parameter kind='argument' name='browser' value='chrome'/>
                <parameter kind='environment-variable' name='capabilities' value='{"browserName":"chrome","chromeOptions":{"args":["incognito","disable-extensions","start-maximized","--lang=es"]},"maxInstances":"5"}'/>
                <parameter kind='environment-variable' name='spec files' value='["C:\\Users\\William\\Documents\\Proyectos\\q-art\\test\\features\\mantisBT\\RandomTesting.feature"]'/>
            </parameters>
            <steps/>
            <attachments/>
        </test-case>
        <test-case start='1552108657450' status='pending' stop='1552108657451'>
            <name>El usuario hace clic en el botón "botonInicarSesion"</name>
            <title>El usuario hace clic en el botón "botonInicarSesion"</title>
            <labels>
                <label name='feature' value='Random Testing'/>
                <label name='story' value='Eventos aleatorios'/>
                <label name='language' value='javascript'/>
                <label name='framework' value='wdio'/>
            </labels>
            <parameters>
                <parameter kind='argument' name='browser' value='chrome'/>
                <parameter kind='environment-variable' name='capabilities' value='{"browserName":"chrome","chromeOptions":{"args":["incognito","disable-extensions","start-maximized","--lang=es"]},"maxInstances":"5"}'/>
                <parameter kind='environment-variable' name='spec files' value='["C:\\Users\\William\\Documents\\Proyectos\\q-art\\test\\features\\mantisBT\\RandomTesting.feature"]'/>
            </parameters>
            <steps/>
            <attachments/>
        </test-case>
        <test-case start='1552108657451' status='pending' stop='1552108657452'>
            <name>El usuario debe ver la ventana con título "Mi Vista - MantisBT"</name>
            <title>El usuario debe ver la ventana con título "Mi Vista - MantisBT"</title>
            <labels>
                <label name='feature' value='Random Testing'/>
                <label name='story' value='Eventos aleatorios'/>
                <label name='language' value='javascript'/>
                <label name='framework' value='wdio'/>
            </labels>
            <parameters>
                <parameter kind='argument' name='browser' value='chrome'/>
                <parameter kind='environment-variable' name='capabilities' value='{"browserName":"chrome","chromeOptions":{"args":["incognito","disable-extensions","start-maximized","--lang=es"]},"maxInstances":"5"}'/>
                <parameter kind='environment-variable' name='spec files' value='["C:\\Users\\William\\Documents\\Proyectos\\q-art\\test\\features\\mantisBT\\RandomTesting.feature"]'/>
            </parameters>
            <steps/>
            <attachments/>
        </test-case>
        <test-case start='1552108657452' status='pending' stop='1552108657453'>
            <name>El usuario ejecuta "10" eventos de forma aleatoria</name>
            <title>El usuario ejecuta "10" eventos de forma aleatoria</title>
            <labels>
                <label name='feature' value='Random Testing'/>
                <label name='story' value='Eventos aleatorios'/>
                <label name='language' value='javascript'/>
                <label name='framework' value='wdio'/>
            </labels>
            <parameters>
                <parameter kind='argument' name='browser' value='chrome'/>
                <parameter kind='environment-variable' name='capabilities' value='{"browserName":"chrome","chromeOptions":{"args":["incognito","disable-extensions","start-maximized","--lang=es"]},"maxInstances":"5"}'/>
                <parameter kind='environment-variable' name='spec files' value='["C:\\Users\\William\\Documents\\Proyectos\\q-art\\test\\features\\mantisBT\\RandomTesting.feature"]'/>
            </parameters>
            <steps/>
            <attachments/>
        </test-case>
    </test-cases>
</ns2:test-suite>